{
  "swagger": "2.0",
  "info": {
    "description": "Документация с описанием методов по взаимодействию МП и сервера.",
    "version": "1.1",
    "title": "ЯМ Api документация"
  },
  "host": "localmodx.appsj.su",
  "tags": [
    {
      "name": "Каталог"
    },
    {
      "name": "Корзина"
    },
    {
      "name": "Организации и города"
    },
    {
      "name": "Профиль"
    },
    {
      "name": "Акции"
    },
    {
      "name": "Авторизация"
    },
    {
      "name": "Оценка заказа"
    },
    {
      "name": "Словари"
    }
  ],
  "schemes": [
    "https",
    "http"
  ],
  "paths": {
    "/products.json": {
      "post": {
        "tags": [
          "Каталог"
        ],
        "summary": "Получить актуальный каталог продуктов выбранного ресторана.",
        "description": "POST-запрос, передается id ресторана и способ доставки.",
        "operationId": "products",
        "consumes": [
          "application/json"
        ],
        "produces": [
          "application/json"
        ],
        "parameters": [
          {
            "in": "body",
            "name": "body",
            "description": "Pet object that needs to be added to the store",
            "required": true,
            "schema": {
              "$ref": "#/definitions/Products"
            }
          }
        ],
        "responses": {
          "200": {
            "description": "В качестве ответа возвращается массив товаров вида:",
            "schema": {
              "$ref": "#/definitions/ProductsResponse"
            }
          }
        }
      }
    },
    "/catalogs.json": {
      "get": {
        "tags": [
          "Каталог"
        ],
        "summary": "Получить дерево категорий продуктов.",
        "description": "GET запрос, ничего не передается",
        "operationId": "catalogs",
        "consumes": [
          "application/json"
        ],
        "produces": [
          "application/json"
        ],
        "responses": {
          "200": {
            "description": "В качестве ответа возвращаются категории вида:",
            "schema": {
              "$ref": "#/definitions/CatalogResponse"
            }
          }
        }
      }
    },
    "/promotions.json": {
      "post": {
        "tags": [
          "Акции"
        ],
        "summary": "Получить информацию о конкретном заказе.",
        "description": "Пост запрос, в заголовках передаем токен, accept, content-type",
        "operationId": "promotions",
        "consumes": [
          "application/json"
        ],
        "produces": [
          "application/json"
        ],
        "parameters": [
          {
            "in": "header",
            "name": "Authorization",
            "type": "string",
            "default": "Bearer sadcasdc"
          },
          {
            "in": "header",
            "name": "Content-Type",
            "type": "string",
            "default": "application/json"
          }
        ],
        "responses": {
          "200": {
            "description": "В качестве ответа возвращается массив акций:",
            "schema": {
              "$ref": "#/definitions/promotionsResponse"
            }
          }
        }
      }
    },
    "/towns.json": {
      "get": {
        "tags": [
          "Организации и города"
        ],
        "summary": "Получить список городов.",
        "description": "GET-запрос, ничего не передается",
        "operationId": "towns",
        "consumes": [
          "application/json"
        ],
        "produces": [
          "application/json"
        ],
        "responses": {
          "200": {
            "description": "В качестве ответа возвращается массив городов.",
            "schema": {
              "$ref": "#/definitions/townsResponse"
            }
          }
        }
      }
    },
    "/get-organizations.json": {
      "get": {
        "tags": [
          "Организации и города"
        ],
        "summary": "Получить список организаций в городе.",
        "description": "GET-запрос, в параметрах передается параметр id, равный id города.",
        "operationId": "get-organizations",
        "consumes": [
          "application/json"
        ],
        "produces": [
          "application/json"
        ],
        "parameters": [
          {
            "name": "id",
            "in": "query",
            "description": "id города",
            "required": true,
            "type": "array",
            "items": {
              "type": "number",
              "default": 1830
            },
            "collectionFormat": "multi"
          }
        ],
        "responses": {
          "200": {
            "description": "В качестве ответа приходит массив организаций в городе.",
            "schema": {
              "$ref": "#/definitions/orgsResponse"
            }
          }
        }
      }
    },
    "/get-organization-by-coordinates.json": {
      "get": {
        "tags": [
          "Организации и города"
        ],
        "summary": "Получить id организации по координатам..",
        "description": "",
        "operationId": "get-organization-by-coordinates",
        "consumes": [
          "application/json"
        ],
        "produces": [
          "application/json"
        ],
        "parameters": [
          {
            "name": "x",
            "in": "query",
            "description": "Координата по X",
            "required": true,
            "type": "array",
            "items": {
              "type": "number",
              "default": 60.824208
            },
            "collectionFormat": "multi"
          },
          {
            "name": "y",
            "in": "query",
            "description": "Координата по Y",
            "required": true,
            "type": "array",
            "items": {
              "type": "number",
              "default": 56.763288
            },
            "collectionFormat": "multi"
          }
        ],
        "responses": {
          "200": {
            "description": "В случае успеха",
            "schema": {
              "$ref": "#/definitions/orgResponse"
            }
          }
        }
      }
    },
    "/get-user-addresses.json": {
      "post": {
        "tags": [
          "Профиль"
        ],
        "summary": "Получение списка последних адресов.",
        "description": "Получение списка последних адресов, на которые производился заказ.",
        "operationId": "get-user-addresses",
        "consumes": [
          "application/json"
        ],
        "produces": [
          "application/json"
        ],
        "parameters": [
          {
            "in": "header",
            "name": "Authorization",
            "type": "string",
            "default": "Bearer sadcasdc"
          },
          {
            "in": "header",
            "name": "Content-Type",
            "type": "string",
            "default": "application/json"
          }
        ],
        "responses": {
          "200": {
            "description": "В случае успеха",
            "schema": {
              "$ref": "#/definitions/lastAddresses"
            }
          }
        }
      }
    },
    "/user.json": {
      "post": {
        "tags": [
          "Профиль"
        ],
        "summary": "Получение информации о пользователе.",
        "description": "Получение информации о пользователе.",
        "operationId": "user",
        "consumes": [
          "application/json"
        ],
        "produces": [
          "application/json"
        ],
        "parameters": [
          {
            "in": "header",
            "name": "Authorization",
            "type": "string",
            "default": "Bearer sadcasdc"
          },
          {
            "in": "header",
            "name": "Content-Type",
            "type": "string",
            "default": "application/json"
          }
        ],
        "responses": {
          "200": {
            "description": "В случае успеха",
            "schema": {
              "$ref": "#/definitions/user"
            }
          }
        }
      }
    },
    "/getordershistory.json": {
      "post": {
        "tags": [
          "Профиль"
        ],
        "summary": "Получить список заказов пользователя.",
        "description": "Пост запрос, в заголовках передаем токен, accept, content-type",
        "operationId": "get-orders-history",
        "consumes": [
          "application/json"
        ],
        "produces": [
          "application/json"
        ],
        "parameters": [
          {
            "in": "header",
            "name": "Authorization",
            "type": "string",
            "default": "Bearer sadcasdc"
          },
          {
            "in": "header",
            "name": "Content-Type",
            "type": "string",
            "default": "application/json"
          }
        ],
        "responses": {
          "200": {
            "description": "В случае успеха",
            "schema": {
              "$ref": "#/definitions/getOrdersHistory"
            }
          }
        }
      }
    },
    "/getorderbyhistory.json": {
      "post": {
        "tags": [
          "Профиль"
        ],
        "summary": "Получить информацию о конкретном заказе.",
        "description": "Пост запрос, в заголовках передаем токен, accept, content-type",
        "operationId": "get-order-by-history",
        "consumes": [
          "application/json"
        ],
        "produces": [
          "application/json"
        ],
        "parameters": [
          {
            "in": "body",
            "name": "body",
            "description": "в теле передаем номер заказа",
            "required": true,
            "schema": {
              "$ref": "#/definitions/order_id"
            }
          },
          {
            "in": "header",
            "name": "Authorization",
            "type": "string",
            "default": "Bearer sadcasdc"
          },
          {
            "in": "header",
            "name": "Content-Type",
            "type": "string",
            "default": "application/json"
          }
        ],
        "responses": {
          "200": {
            "description": "В случае успеха",
            "schema": {
              "$ref": "#/definitions/getOrdersByHistory"
            }
          }
        }
      }
    },
    "/user-change.json": {
      "post": {
        "tags": [
          "Профиль"
        ],
        "summary": "Изменить данные профиля пользователя.",
        "description": "Пост запрос, в заголовках передаем токен, accept, content-type. gender == 0 не указан,1 мужчина. 2 - женщина",
        "operationId": "user-change",
        "consumes": [
          "application/json"
        ],
        "produces": [
          "application/json"
        ],
        "parameters": [
          {
            "in": "body",
            "name": "body",
            "description": "Pet object that needs to be added to the store",
            "required": true,
            "schema": {
              "$ref": "#/definitions/user_change_body"
            }
          },
          {
            "in": "header",
            "name": "Authorization",
            "type": "string",
            "default": "Bearer sadcasdc"
          },
          {
            "in": "header",
            "name": "Content-Type",
            "type": "string",
            "default": "application/json"
          }
        ],
        "responses": {
          "200": {
            "description": "В случае успеха",
            "schema": {
              "$ref": "#/definitions/user"
            }
          }
        }
      }
    },
    "/sms.json": {
      "post": {
        "tags": [
          "Авторизация"
        ],
        "summary": "запрос смс сообщения на номер.",
        "description": "Запрос содержит в себе 2 параметра, phone и email (email не является обязательным).",
        "operationId": "sms",
        "consumes": [
          "application/json"
        ],
        "produces": [
          "application/json"
        ],
        "parameters": [
          {
            "in": "body",
            "name": "body",
            "description": "Pet object that needs to be added to the store",
            "required": true,
            "schema": {
              "$ref": "#/definitions/sms_body"
            }
          },
          {
            "in": "header",
            "name": "Content-Type",
            "type": "string",
            "default": "application/json"
          }
        ],
        "responses": {
          "200": {
            "description": "Ответ - id запроса. id запроса нужен чтобы указать его при проверке кода из смс",
            "schema": {
              "$ref": "#/definitions/response_sms"
            }
          }
        }
      }
    },
    "/authorization.json": {
      "post": {
        "tags": [
          "Авторизация"
        ],
        "summary": "Проверка кода из смс.",
        "description": "POST запрос содержащий request_id и код из смс. Код из смс будем отправлять строкой, потому что это все таки строка, а не число.",
        "operationId": "authorization",
        "consumes": [
          "application/json"
        ],
        "produces": [
          "application/json"
        ],
        "parameters": [
          {
            "in": "body",
            "name": "body",
            "description": "Pet object that needs to be added to the store",
            "required": true,
            "schema": {
              "$ref": "#/definitions/auth_body"
            }
          },
          {
            "in": "header",
            "name": "Content-Type",
            "type": "string",
            "default": "application/json"
          }
        ],
        "responses": {
          "200": {
            "description": "Ответ - id запроса. id запроса нужен чтобы указать его при проверке кода из смс",
            "schema": {
              "$ref": "#/definitions/auth_response"
            }
          }
        }
      }
    },
    "/api-cart-info.json": {
      "get": {
        "tags": [
          "Словари"
        ],
        "summary": "Доп-информация в приложении.",
        "description": "GET запрос, ничего не передается",
        "operationId": "api-cart-info",
        "consumes": [
          "application/json"
        ],
        "produces": [
          "application/json"
        ],
        "responses": {
          "200": {
            "description": "В качестве ответа возвращаются массивы:",
            "schema": {
              "$ref": "#/definitions/api-cart-info"
            }
          }
        }
      }
    },
    "/cart-add.json": {
      "get": {
        "tags": [
          "Корзина"
        ],
        "summary": "Добавки в корзине.",
        "description": "GET-запрос.Возвращает массив добавок (“cart_add”), новинок (“new”) и подарков (“gift”), акций по цене (“gift_from_cost”)",
        "operationId": "cart-add",
        "consumes": [
          "application/json"
        ],
        "produces": [
          "application/json"
        ],
        "responses": {
          "200": {
            "description": "В качестве ответа возвращаются массивы:",
            "schema": {
              "$ref": "#/definitions/cart-add"
            }
          }
        }
      }
    },
    "/cart-add-product.json": {
      "post": {
        "tags": [
          "Корзина"
        ],
        "summary": "Добавление продукта в корзину.",
        "description": "Пост запрос, в заголовках передаем токен, accept, content-type. В параметр selfdelivery передается false/true в зависимости от способа доставки.",
        "operationId": "cart-add-product",
        "consumes": [
          "application/json"
        ],
        "produces": [
          "application/json"
        ],
        "parameters": [
          {
            "in": "body",
            "name": "body",
            "description": "Массивы ingredients, size, type пока следует передавать пустыми. В массиве additives содержатся добавки в блюдо, где id - id продукта, count - количество.",
            "required": true,
            "schema": {
              "$ref": "#/definitions/cart_add_body"
            }
          },
          {
            "in": "header",
            "name": "Authorization",
            "type": "string",
            "default": "Bearer sadcasdc"
          },
          {
            "in": "header",
            "name": "Content-Type",
            "type": "string",
            "default": "application/json"
          }
        ],
        "responses": {
          "200": {
            "description": "При добавлении товара в корзину возвращается объект, содержащий в себе массив products. В поле key записывается уникальный ключ товара в корзине (например '064b4e87745eb57c42c65410080e40f1'). Этот ключ необходим для изменения кол-ва товаров в корзине.",
            "schema": {
              "$ref": "#/definitions/cart_add_response_body"
            }
          }
        }
      }
    },
    "/cart-change-count-product.json": {
      "post": {
        "tags": [
          "Корзина"
        ],
        "summary": "Изменить кол-во продукта в корзине.",
        "description": "Пост запрос, в заголовках передаем токен, accept, content-type.",
        "operationId": "cart-change-count-product",
        "consumes": [
          "application/json"
        ],
        "produces": [
          "application/json"
        ],
        "parameters": [
          {
            "in": "body",
            "name": "body",
            "description": "Массивы ingredients, size, type пока следует передавать пустыми. В массиве additives содержатся добавки в блюдо, где id - id продукта, count - количество.",
            "required": true,
            "schema": {
              "$ref": "#/definitions/cart-change-count-product-body"
            }
          },
          {
            "in": "header",
            "name": "Authorization",
            "type": "string",
            "default": "Bearer sadcasdc"
          },
          {
            "in": "header",
            "name": "Content-Type",
            "type": "string",
            "default": "application/json"
          }
        ],
        "responses": {
          "200": {
            "description": "В случае успеха возвращается обновленный массив корзины",
            "schema": {
              "$ref": "#/definitions/cart_add_response_body"
            }
          }
        }
      }
    },
    "/create-order.json": {
      "post": {
        "tags": [
          "Корзина"
        ],
        "summary": "Оформление закза.",
        "description": "Пост запрос, в заголовках передаем токен, accept, content-type.",
        "operationId": "create-order",
        "consumes": [
          "application/json"
        ],
        "produces": [
          "application/json"
        ],
        "parameters": [
          {
            "in": "body",
            "name": "body",
            "description": "",
            "required": true,
            "schema": {
              "$ref": "#/definitions/create-order"
            }
          },
          {
            "in": "header",
            "name": "Authorization",
            "type": "string",
            "default": "Bearer sadcasdc"
          },
          {
            "in": "header",
            "name": "Content-Type",
            "type": "string",
            "default": "application/json"
          }
        ],
        "responses": {
          "200": {
            "description": "Возвращает номер заказа.",
            "schema": {
              "$ref": "#/definitions/create-order-response"
            }
          }
        }
      }
    },
    "/setorderrating.json": {
      "post": {
        "tags": [
          "Оценка заказа"
        ],
        "summary": "Общая оценка заказа",
        "description": "Пост запрос, в заголовках передаем токен, accept, content-type. taste - оценка вкуса, speed- скорость доставки, temp - оценка температуры подачи, beauty - красота подачи, courier - оценка общения с курьером.",
        "operationId": "set-order-rating",
        "consumes": [
          "application/json"
        ],
        "produces": [
          "application/json"
        ],
        "parameters": [
          {
            "in": "body",
            "name": "body",
            "description": "",
            "required": true,
            "schema": {
              "$ref": "#/definitions/set-order-rating-body"
            }
          },
          {
            "in": "header",
            "name": "Authorization",
            "type": "string",
            "default": "Bearer sadcasdc"
          },
          {
            "in": "header",
            "name": "Content-Type",
            "type": "string"
          }
        ],
        "responses": {
          "200": {
            "description": "Ничего не возвращает."
          }
        }
      }
    },
    "/setproductrating.json": {
      "post": {
        "tags": [
          "Оценка заказа"
        ],
        "summary": "Оценка каждого из блюд внутри заказа",
        "description": "Пост запрос, в заголовках передаем токен, accept, content-type.",
        "operationId": "set-product-rating",
        "consumes": [
          "application/json"
        ],
        "produces": [
          "application/json"
        ],
        "parameters": [
          {
            "in": "body",
            "name": "body",
            "description": "",
            "required": true,
            "schema": {
              "$ref": "#/definitions/set-product-rating-body"
            }
          },
          {
            "in": "header",
            "name": "Authorization",
            "type": "string",
            "default": "Bearer sadcasdc"
          },
          {
            "in": "header",
            "name": "Content-Type",
            "type": "string"
          }
        ],
        "responses": {
          "200": {
            "description": "Ничего не возвращает."
          }
        }
      }
    }
  },
  "definitions": {
    "set-product-rating-body": {
      "type": "object",
      "properties": {
        "orderId": {
          "type": "number"
        },
        "comment": {
          "type": "string"
        },
        "ratings": {
          "type": "array",
          "items": {
            "type": "object",
            "properties": {
              "id": {
                "type": "number"
              },
              "rating": {
                "type": "number"
              }
            }
          }
        }
      }
    },
    "set-order-rating-body": {
      "type": "object",
      "properties": {
        "orderId": {
          "type": "number"
        },
        "taste": {
          "type": "number"
        },
        "speed": {
          "type": "number"
        },
        "temp": {
          "type": "number"
        },
        "courier": {
          "type": "number"
        },
        "beauty": {
          "type": "number"
        },
        "comment": {
          "type": "string",
          "example": "Курьер грязный"
        }
      }
    },
    "create-order-response": {
      "type": "object",
      "properties": {
        "data": {
          "type": "array",
          "items": {
            "type": "object",
            "properties": {
              "order_id": {
                "type": "number",
                "example": 356
              }
            }
          }
        }
      }
    },
    "create-order": {
      "type": "object",
      "properties": {
        "name": {
          "type": "string",
          "example": "Олег"
        },
        "flat_num": {
          "type": "number",
          "example": 14
        },
        "city": {
          "type": "string",
          "example": "Город"
        },
        "id_org": {
          "type": "number",
          "example": 1811
        },
        "house_num": {
          "type": "string",
          "example": "Дом"
        },
        "floor": {
          "type": "string",
          "example": "Этаж"
        },
        "entrance": {
          "type": "string",
          "example": "Подъезд"
        },
        "doorphone": {
          "type": "string",
          "example": "Код домофона"
        },
        "money": {
          "type": "number",
          "example": 5000
        },
        "table_num": {
          "type": "string",
          "example": "номер столика"
        },
        "comment": {
          "type": "string",
          "example": "комментарий"
        },
        "phone": {
          "type": "string",
          "example": "+711111111111"
        },
        "email": {
          "type": "string"
        },
        "payment_type": {
          "type": "number"
        },
        "order_type": {
          "type": "number"
        },
        "bonus": {
          "type": "number"
        },
        "address": {
          "type": "string",
          "example": "улица"
        },
        "geo": {
          "type": "object",
          "properties": {
            "lat": {
              "type": "string",
              "example": "56.852738"
            },
            "lon": {
              "type": "string",
              "example": "53.2114896"
            }
          }
        }
      }
    },
    "cart-change-count-product-body": {
      "type": "object",
      "properties": {
        "count": {
          "type": "number"
        },
        "key": {
          "type": "string",
          "example": "064b4e87745eb57c42c65410080e40f1"
        }
      }
    },
    "cart_add_body": {
      "type": "object",
      "properties": {
        "id": {
          "type": "number"
        },
        "count": {
          "type": "number"
        },
        "selfdelivery": {
          "type": "boolean"
        },
        "additives": {
          "type": "array",
          "items": {
            "type": "object",
            "properties": {
              "id": {
                "type": "number"
              },
              "count": {
                "type": "number"
              }
            }
          }
        },
        "size": {
          "type": "array",
          "items": {
            "type": "object",
            "properties": {
              "id": {
                "type": "number"
              },
              "count": {
                "type": "number"
              }
            }
          }
        },
        "type": {
          "type": "array",
          "items": {
            "type": "object",
            "properties": {
              "id": {
                "type": "number"
              },
              "count": {
                "type": "number"
              }
            }
          }
        },
        "ingredients": {
          "type": "array",
          "items": {
            "type": "object",
            "properties": {
              "id": {
                "type": "number"
              },
              "count": {
                "type": "number"
              }
            }
          }
        }
      }
    },
    "cart_add_response_body": {
      "type": "object",
      "properties": {
        "promocodes": {
          "type": "string",
          "default": null
        },
        "total_cost": {
          "type": "number",
          "example": 2560
        },
        "total_count": {
          "type": "number",
          "example": 8
        },
        "discount_cost": {
          "type": "number",
          "default": null
        },
        "actual_discount": {
          "type": "number",
          "default": null
        },
        "SumDiscount": {
          "type": "string"
        },
        "PrintMessage": {
          "type": "string"
        },
        "BonusBalance": {
          "type": "string"
        },
        "products": {
          "type": "array",
          "items": {
            "type": "object",
            "properties": {
              "key": {
                "type": "object",
                "properties": {
                  "additional_cost": {
                    "type": "number"
                  },
                  "total_cost": {
                    "type": "number"
                  },
                  "id": {
                    "type": "number"
                  },
                  "price": {
                    "type": "number"
                  },
                  "weight": {
                    "type": "number"
                  },
                  "count": {
                    "type": "number"
                  },
                  "options": {
                    "type": "object",
                    "properties": {
                      "childs": {
                        "type": "object",
                        "properties": {
                          "additives": {
                            "type": "array",
                            "items": {
                              "type": "object",
                              "properties": {
                                "id": {
                                  "type": "number"
                                },
                                "count": {
                                  "type": "number"
                                },
                                "title": {
                                  "type": "string"
                                }
                              }
                            }
                          },
                          "ingredient": {
                            "type": "array",
                            "items": {
                              "type": "object",
                              "properties": {
                                "id": {
                                  "type": "number"
                                },
                                "count": {
                                  "type": "number"
                                },
                                "title": {
                                  "type": "string"
                                }
                              }
                            }
                          },
                          "size": {
                            "type": "array",
                            "items": {
                              "type": "object",
                              "properties": {
                                "id": {
                                  "type": "number"
                                },
                                "count": {
                                  "type": "number"
                                },
                                "title": {
                                  "type": "string"
                                }
                              }
                            }
                          },
                          "type": {
                            "type": "array",
                            "items": {
                              "type": "object",
                              "properties": {
                                "id": {
                                  "type": "number"
                                },
                                "count": {
                                  "type": "number"
                                },
                                "title": {
                                  "type": "string"
                                }
                              }
                            }
                          }
                        }
                      }
                    }
                  }
                }
              }
            }
          }
        }
      }
    },
    "Products": {
      "type": "object",
      "properties": {
        "rest_id": {
          "type": "number",
          "default": "1811,"
        },
        "isSelfDelivery": {
          "type": "boolean"
        }
      }
    },
    "api-cart-info": {
      "type": "object",
      "properties": {
        "data": {
          "type": "array",
          "items": {
            "type": "object",
            "properties": {
              "instagram": {
                "type": "string",
                "example": "Ссылка на инст"
              },
              "facebook": {
                "type": "string",
                "example": "Ссылка на фб"
              },
              "vk": {
                "type": "string",
                "example": "Ссылка на вк"
              },
              "organization_card": {
                "type": "string",
                "example": "Ссылка на реквизиты"
              },
              "qr_tag": {
                "type": "string",
                "example": "префикс qr-кода"
              },
              "phone": {
                "type": "string"
              },
              "delivery_settings": {
                "type": "array",
                "items": {
                  "type": "object",
                  "properties": {
                    "text_disabled": {
                      "type": "string",
                      "example": "Доставка недоступна, вы можете оформить заказ в рабочее время с 9.00 до 23.00"
                    },
                    "worktime_from": {
                      "type": "number",
                      "example": 9
                    },
                    "worktime_to": {
                      "type": "number",
                      "example": 23
                    }
                  }
                }
              },
              "privacy_policy": {
                "type": "string",
                "example": "ссылка на политику конфиденциальности"
              },
              "return_warranty": {
                "type": "string",
                "example": "ссылка на возврат"
              },
              "price_free": {
                "type": "string",
                "example": "сумма, от которой доставка становится бесплатной"
              },
              "price_minimal": {
                "type": "string",
                "example": "минимальная сумма для совершения заказа"
              },
              "work_with_us": {
                "type": "string",
                "example": "ссылка работать с нами"
              }
            }
          }
        }
      }
    },
    "cart-add": {
      "type": "object",
      "properties": {
        "gift_from_cost": {
          "type": "array",
          "items": {
            "type": "object",
            "properties": {
              "id": {
                "type": "string"
              },
              "min_count": {
                "type": "string"
              },
              "title": {
                "type": "string"
              },
              "modificators": {
                "type": "array",
                "items": {
                  "type": "object",
                  "properties": {
                    "id": {
                      "type": "number"
                    },
                    "title": {
                      "type": "string"
                    },
                    "desc": {
                      "type": "string"
                    },
                    "price": {
                      "type": "number"
                    },
                    "img_big": {
                      "type": "string"
                    }
                  }
                }
              }
            }
          }
        },
        "cart_add": {
          "type": "array",
          "items": {
            "type": "object",
            "properties": {
              "id": {
                "type": "number"
              },
              "title": {
                "type": "string"
              },
              "desc": {
                "type": "string"
              },
              "price": {
                "type": "number"
              },
              "img_big": {
                "type": "string"
              }
            }
          }
        },
        "new": {
          "type": "array",
          "items": {
            "type": "object",
            "properties": {
              "id": {
                "type": "number"
              },
              "title": {
                "type": "string"
              },
              "price": {
                "type": "string"
              },
              "img_url": {
                "type": "string"
              }
            }
          }
        },
        "gift": {
          "type": "array",
          "items": {
            "type": "object",
            "properties": {
              "id": {
                "type": "number"
              },
              "title": {
                "type": "string"
              },
              "desc": {
                "type": "string"
              },
              "price": {
                "type": "string"
              },
              "img_url": {
                "type": "string"
              },
              "max_gift": {
                "type": "string",
                "example": "4"
              }
            }
          }
        }
      }
    },
    "sms_body": {
      "type": "object",
      "properties": {
        "phone": {
          "type": "string",
          "example": "+79998887766"
        },
        "email": {
          "type": "string"
        }
      }
    },
    "response_sms": {
      "type": "object",
      "properties": {
        "request_id": {
          "type": "string"
        }
      }
    },
    "auth_body": {
      "type": "object",
      "properties": {
        "request_id": {
          "type": "string"
        },
        "code": {
          "type": "string",
          "example": "1111"
        }
      }
    },
    "auth_response": {
      "type": "object",
      "properties": {
        "data": {
          "type": "array",
          "items": {
            "type": "object",
            "properties": {
              "token": {
                "type": "string"
              },
              "user": {
                "type": "object",
                "properties": {
                  "name": {
                    "type": "string",
                    "example": "Олег"
                  },
                  "email": {
                    "type": "string",
                    "example": "oleg@test.ru"
                  },
                  "gender": {
                    "type": "string",
                    "example": "Не указан"
                  },
                  "phone": {
                    "type": "string",
                    "example": "111 111-1111"
                  },
                  "bonus": {
                    "type": "string",
                    "example": "0.00"
                  },
                  "birthday": {
                    "type": "string",
                    "example": "1970-01-01T03:00:00"
                  },
                  "referal": {
                    "type": "object",
                    "properties": {
                      "code": {
                        "type": "string",
                        "default": null,
                        "example": "U-123-123"
                      },
                      "my_bonus": {
                        "type": "number",
                        "example": 100
                      },
                      "friend_bonus": {
                        "type": "number",
                        "example": 200
                      }
                    }
                  }
                }
              }
            }
          }
        }
      }
    },
    "promotionsResponse": {
      "type": "array",
      "items": {
        "type": "object",
        "properties": {
          "id": {
            "type": "string",
            "example": "10"
          },
          "title": {
            "type": "string",
            "example": "промо-шаурма"
          },
          "content": {
            "type": "string"
          },
          "date_end": {
            "type": "number",
            "example": 1604091600
          },
          "product_id": {
            "type": "string",
            "example": "379"
          },
          "promocode": {
            "type": "string",
            "example": "shawarma"
          },
          "type": {
            "type": "string",
            "example": "2"
          },
          "discount": {
            "type": "string",
            "example": "0"
          },
          "img_big": {
            "type": "string"
          },
          "img_small": {
            "type": "string"
          },
          "url": {
            "type": "string"
          }
        }
      }
    },
    "user_change_body": {
      "type": "object",
      "properties": {
        "name": {
          "type": "string",
          "example": "Олег"
        },
        "email": {
          "type": "string"
        },
        "bithday": {
          "type": "string",
          "example": "1.05.1991"
        },
        "gender": {
          "type": "number",
          "example": 1
        }
      }
    },
    "order_id": {
      "type": "object",
      "properties": {
        "order_id": {
          "type": "number",
          "default": 350
        }
      }
    },
    "ProductsResponse": {
      "type": "object",
      "properties": {
        "data": {
          "type": "array",
          "items": {
            "type": "object",
            "properties": {
              "id": {
                "type": "string",
                "example": "2339"
              },
              "title": {
                "type": "string",
                "example": "Калифорния с форелью том ям"
              },
              "parent": {
                "type": "string",
                "example": "2325"
              },
              "article": {
                "type": "number",
                "example": 907949
              },
              "price": {
                "type": "number",
                "example": 270
              },
              "desc": {
                "type": "string",
                "example": "рис, нори, форель, сливочный сыр, крветки, огурец, майонез, тобико, соус том ям"
              },
              "new": {
                "type": "boolean",
                "example": 0
              },
              "popular": {
                "type": "boolean",
                "example": 0
              },
              "favorite": {
                "type": "boolean",
                "example": 0
              },
              "bonus_add": {
                "type": "number"
              },
              "times_bought": {
                "type": "number"
              },
              "rating": {
                "type": "number"
              },
              "energy": {
                "type": "object",
                "properties": {
                  "energy_size": {
                    "type": "number"
                  },
                  "energy_value": {
                    "type": "number"
                  },
                  "energy_allergens": {
                    "type": "string"
                  },
                  "energy_carbohydrates": {
                    "type": "number"
                  },
                  "energy_protein": {
                    "type": "number"
                  },
                  "energy_oils": {
                    "type": "number"
                  }
                }
              },
              "additives": {
                "type": "array",
                "items": {
                  "type": "object",
                  "properties": {
                    "master": {
                      "example": "2383",
                      "type": "string"
                    },
                    "id": {
                      "example": "2383",
                      "type": "string"
                    },
                    "img_url": {
                      "type": "string",
                      "default": null
                    },
                    "title": {
                      "example": "Без острого масла",
                      "type": "string"
                    },
                    "price": {
                      "type": "number"
                    }
                  }
                }
              },
              "ingredients": {
                "type": "array",
                "items": {
                  "type": "object",
                  "properties": {
                    "master": {
                      "example": "2383",
                      "type": "string"
                    },
                    "id": {
                      "example": "2383",
                      "type": "string"
                    },
                    "img_url": {
                      "type": "string",
                      "default": null
                    },
                    "title": {
                      "example": "Без острого масла",
                      "type": "string"
                    },
                    "price": {
                      "type": "number"
                    }
                  }
                }
              },
              "types": {
                "type": "array",
                "items": {
                  "type": "object",
                  "properties": {
                    "master": {
                      "example": "2383",
                      "type": "string"
                    },
                    "id": {
                      "example": "2383",
                      "type": "string"
                    },
                    "img_url": {
                      "type": "string",
                      "default": null
                    },
                    "title": {
                      "example": "Без острого масла",
                      "type": "string"
                    },
                    "price": {
                      "type": "number"
                    }
                  }
                }
              },
              "analogs": {
                "type": "array",
                "items": {
                  "type": "object",
                  "properties": {
                    "master": {
                      "example": "2383",
                      "type": "string"
                    },
                    "id": {
                      "example": "2383",
                      "type": "string"
                    },
                    "img_url": {
                      "type": "string",
                      "default": null
                    },
                    "title": {
                      "example": "Без острого масла",
                      "type": "string"
                    },
                    "price": {
                      "type": "number"
                    }
                  }
                }
              }
            }
          }
        }
      }
    },
    "CatalogResponse": {
      "type": "object",
      "properties": {
        "data": {
          "type": "array",
          "items": {
            "type": "object",
            "properties": {
              "id": {
                "type": "string",
                "example": "2339"
              },
              "parent": {
                "type": "string",
                "example": "1561"
              },
              "title": {
                "type": "string",
                "example": "Спец. меню"
              }
            }
          }
        }
      }
    },
    "townsResponse": {
      "type": "object",
      "properties": {
        "data": {
          "type": "array",
          "items": {
            "type": "object",
            "properties": {
              "title": {
                "type": "string",
                "example": "Екатеринбург"
              },
              "id": {
                "type": "string",
                "example": "2339"
              }
            }
          }
        }
      }
    },
    "orgsResponse": {
      "type": "object",
      "properties": {
        "orgs": {
          "type": "array",
          "items": {
            "type": "object",
            "properties": {
              "title": {
                "type": "string",
                "example": "Краснолесья,133   АКАДЕМ"
              },
              "id": {
                "type": "number",
                "example": 2339
              },
              "requisites": {
                "type": "string",
                "example": "https://localmodx.appsj.su/krasnolesya,133-akadem.html"
              },
              "deliveryTerminalId": {
                "type": "string",
                "example": "1037d4f3-72c7-5138-0168-bc7a10cdbd3"
              },
              "img": {
                "type": "string",
                "example": "assets/template/images/image 21.png",
                "default": ""
              },
              "address": {
                "type": "string",
                "example": "Краснолесья,133"
              },
              "description": {
                "type": "string",
                "example": "Описание ресторана",
                "default": ""
              },
              "comment": {
                "type": "string",
                "example": "Комментарий",
                "default": ""
              },
              "phone": {
                "type": "string",
                "example": "7111111111",
                "default": ""
              },
              "worktime": {
                "type": "string",
                "example": "8:00-19:00",
                "default": ""
              },
              "payments": {
                "type": "array",
                "items": {
                  "type": "object",
                  "properties": {
                    "id": {
                      "type": "number",
                      "example": 1
                    },
                    "name": {
                      "type": "string",
                      "example": "Оплата картой в приложении"
                    }
                  }
                }
              },
              "deliveries": {
                "type": "array",
                "items": {
                  "type": "object",
                  "properties": {
                    "id": {
                      "type": "number",
                      "example": 2
                    },
                    "name": {
                      "type": "string",
                      "example": "Курьером"
                    }
                  }
                }
              }
            }
          }
        }
      }
    },
    "orgResponse": {
      "type": "object",
      "properties": {
        "org_id": {
          "type": "string",
          "example": "1811"
        }
      }
    },
    "lastAddresses": {
      "type": "object",
      "properties": {
        "addresses": {
          "type": "array",
          "items": {
            "type": "object",
            "properties": {
              "street": {
                "type": "string",
                "example": "Краснолесья,133   АКАДЕМ"
              },
              "doorphone": {
                "type": "string",
                "example": "Код домофона"
              },
              "floor": {
                "type": "string",
                "example": "Этаж"
              },
              "house_num": {
                "type": "string",
                "example": "номер дома"
              },
              "flat_num": {
                "type": "string",
                "example": "номер квартиры"
              },
              "entrance": {
                "type": "string",
                "example": "Номер подъезда"
              }
            }
          }
        }
      }
    },
    "user": {
      "type": "object",
      "properties": {
        "data": {
          "type": "array",
          "items": {
            "type": "object",
            "properties": {
              "name": {
                "type": "string",
                "example": "Олег"
              },
              "email": {
                "type": "string",
                "example": "oleg@test.ru"
              },
              "gender": {
                "type": "string",
                "example": "Не указан"
              },
              "phone": {
                "type": "string",
                "example": "111 111-1111"
              },
              "bonus": {
                "type": "string",
                "example": "0.00"
              },
              "birthday": {
                "type": "string",
                "example": "1970-01-01T03:00:00"
              },
              "referal": {
                "type": "object",
                "properties": {
                  "code": {
                    "type": "string",
                    "default": null,
                    "example": "U-123-123"
                  },
                  "my_bonus": {
                    "type": "number",
                    "example": 100
                  },
                  "friend_bonus": {
                    "type": "number",
                    "example": 200
                  },
                  "ref_link": {
                    "type": "string",
                    "example": "google.com"
                  }
                }
              }
            }
          }
        }
      }
    },
    "getOrdersHistory": {
      "type": "object",
      "properties": {
        "orders": {
          "type": "array",
          "items": {
            "type": "object",
            "properties": {
              "cost": {
                "type": "number",
                "example": 595
              },
              "order_id": {
                "type": "number",
                "example": 123
              },
              "status_id": {
                "type": "number",
                "example": 6
              },
              "status_color": {
                "type": "string",
                "example": "3366FF"
              },
              "status_name": {
                "type": "string",
                "example": "Новая"
              },
              "createdon": {
                "type": "string",
                "example": "2020-10-29 12:29:06"
              },
              "street": {
                "type": "string",
                "example": "ул Абрикосовая, 1, кв 334, этаж 4"
              },
              "city": {
                "type": "string",
                "example": "Ижевск"
              }
            }
          }
        }
      }
    },
    "getOrdersByHistory": {
      "type": "object",
      "properties": {
        "cost": {
          "type": "number",
          "example": 1220
        },
        "order_id": {
          "type": "number",
          "example": 350
        },
        "status_id": {
          "type": "number",
          "example": 8
        },
        "status_color": {
          "type": "string",
          "example": "FF0000"
        },
        "status_name": {
          "type": "string",
          "example": "Не отправлен в IIKO"
        },
        "delivery_id": {
          "type": "number",
          "example": 2
        },
        "delivery_name": {
          "type": "string",
          "example": "Курьером"
        },
        "payment_id": {
          "type": "number",
          "example": 3
        },
        "payment_name": {
          "type": "string",
          "example": "Оплата наличными при получении"
        },
        "createdon": {
          "type": "string",
          "example": "2020-12-08 13:40:10"
        },
        "comment": {
          "type": "string",
          "default": null,
          "example": "Комментарий"
        },
        "city": {
          "type": "string",
          "example": "Ижевск"
        },
        "org_id": {
          "type": "string",
          "example": "1811"
        },
        "street": {
          "type": "string",
          "example": "Техническая"
        },
        "floor": {
          "type": "string",
          "example": "4 этаж"
        },
        "house_num": {
          "type": "string",
          "example": "номер дома"
        },
        "flat_num": {
          "type": "string",
          "example": "номер квартиры"
        },
        "entrance": {
          "type": "string",
          "example": "Подъезд"
        },
        "promocode": {
          "type": "string"
        },
        "discrount": {
          "type": "string"
        },
        "rating": {
          "type": "string",
          "example": "5"
        },
        "bonus_writeoff": {
          "type": "string",
          "example": "Сколько бонусов было списано"
        },
        "bonus_accrual": {
          "type": "string",
          "example": "Сколько бонусов было начислено"
        },
        "products": {
          "type": "array",
          "items": {
            "type": "object",
            "properties": {
              "title": {
                "type": "string",
                "example": "Стейк из говядины"
              },
              "product_id": {
                "type": "number",
                "example": 2496
              },
              "count": {
                "type": "number",
                "example": 1
              },
              "price": {
                "type": "number",
                "example": 900
              },
              "img_url": {
                "type": "string"
              },
              "weight": {
                "type": "number"
              },
              "options": {
                "type": "object",
                "properties": {
                  "childs": {
                    "type": "object",
                    "properties": {
                      "additives": {
                        "type": "array",
                        "items": {
                          "type": "object",
                          "properties": {
                            "id": {
                              "type": "number",
                              "example": 2496
                            },
                            "count": {
                              "type": "number",
                              "example": 1
                            },
                            "title": {
                              "type": "string",
                              "example": "Well Done"
                            }
                          }
                        }
                      },
                      "ingredients": {
                        "type": "array",
                        "items": {
                          "type": "object",
                          "properties": {
                            "id": {
                              "type": "number",
                              "example": 2496
                            },
                            "count": {
                              "type": "number",
                              "example": 1
                            },
                            "title": {
                              "type": "string",
                              "example": "Well Done"
                            }
                          }
                        }
                      },
                      "size": {
                        "type": "array",
                        "items": {
                          "type": "object",
                          "properties": {
                            "id": {
                              "type": "number",
                              "example": 2496
                            },
                            "count": {
                              "type": "number",
                              "example": 1
                            },
                            "title": {
                              "type": "string",
                              "example": "Well Done"
                            }
                          }
                        }
                      },
                      "type": {
                        "type": "array",
                        "items": {
                          "type": "object",
                          "properties": {
                            "id": {
                              "type": "number",
                              "example": 2496
                            },
                            "count": {
                              "type": "number",
                              "example": 1
                            },
                            "title": {
                              "type": "string",
                              "example": "Well Done"
                            }
                          }
                        }
                      }
                    }
                  }
                }
              }
            }
          }
        }
      }
    }
  }
}